alabaster==0.7.12
amqp==1.4.9
anyjson==0.3.3
apturl==0.5.2
arabic-reshaper==2.1.3
argon2-cffi==21.1.0
asgiref==3.4.1
async-generator==1.10
attrs==21.2.0
awesome-slugify==1.6.5
Babel==2.9.1
backcall==0.2.0
backports.zoneinfo==0.2.1
bcrypt==3.1.7
billiard==3.3.0.23
blinker==1.4
boto3==1.18.49
botocore==1.21.65
Brlapi==0.7.0
cachetools==4.2.4
celery==3.1.26.post2
certifi==2021.10.8
cffi==1.14.6
chardet==3.0.4
charset-normalizer==2.0.7
Click==7.0
Collectfast==0.6.2
colorama==0.4.4
command-not-found==0.3
Contacts==1.0
coreapi==2.3.3
coreschema==0.0.4
coverage==4.5.1
cryptography==36.0.1
cupshelpers==1.0
dbus-python==1.2.16
decorator==5.1.0
defer==1.0.6
Deprecated==1.2.13
distro==1.4.0
distro-info===0.23ubuntu1
Django==2.2.16
django-anymail==2.2
django-appconf==1.0.5
django-celery==3.3.1
django-celery-beat==1.1.1
django-ckeditor==6.1.0
django-composite-foreignkey==1.1.0
django-compressor==2.4.1
django-cors-headers==3.8.0
django-coverage-plugin==1.5.0
django-crispy-forms==1.7.2
django-debug-toolbar==1.9.1
django-environ==0.4.4
django-extensions==2.2.1
django-filter==21.1
django-guardian==2.4.0
django-js-asset==1.2.2
django-mailjet==0.3.1
django-model-utils==3.1.1
django-redis==4.9.0
django-rest-swagger==2.2.0
django-storages==1.11.1
django-test-plus==1.0.22
django-user-agents==0.4.0
djangorestframework==3.8.2
djangorestframework-bulk==0.2.1
djangorestframework-csv==2.1.1
djrill==2.1.0
docutils==0.17.1
drf-extensions==0.4.0
drf-renderer-xlsx==0.4.1
duplicity==0.8.12.0
ecdsa==0.17.0
entrypoints==0.3
et-xmlfile==1.1.0
factory-boy==2.11.1
Faker==8.14.0
fasteners==0.14.1
flake8==3.5.0
future==0.18.2
google-api-core==2.3.2
google-api-python-client==2.33.0
google-auth==2.3.3
google-auth-httplib2==0.1.0
google-auth-oauthlib==0.4.6
googleapis-common-protos==1.54.0
googlemaps==4.4.2
gunicorn==19.8.1
h11==0.12.0
html5lib==1.1
httplib2==0.20.2
idna==3.3
imagesize==1.2.0
ipdb==0.11
ipython==7.28.0
itypes==1.2.0
jedi==0.18.0
Jinja2==3.0.2
jmespath==0.10.0
keyring==18.0.1
kombu==3.0.37
language-selector==0.1
launchpadlib==1.10.13
lazr.restfulclient==0.14.2
lazr.uri==1.0.3
linecache2==1.0.0
lockfile==0.12.2
louis==3.12.0
macaroonbakery==1.3.1
mailjet-rest==1.3.4
Mako==1.1.0
MarkupSafe==2.0.1
matplotlib-inline==0.1.3
mccabe==0.6.1
monotonic==1.5
more-itertools==8.10.0
netifaces==0.10.4
oauthlib==3.1.0
olefile==0.46
openapi-codec==1.3.2
openpyxl==3.0.9
outcome==1.1.0
packaging==21.0
paramiko==2.6.0
parso==0.8.2
pbr==5.4.5
pexpect==4.8.0
pickleshare==0.7.5
Pillow==8.4.0
pluggy==0.6.0
prompt-toolkit==3.0.20
protobuf==3.19.1
psycopg2==2.9.2
psycopg2-binary==2.8.4
ptyprocess==0.7.0
py==1.10.0
pyasn1==0.4.8
pyasn1-modules==0.2.8
pycairo==1.16.2
pycodestyle==2.3.1
pycparser==2.21
pycups==1.9.73
pydevd==1.3.3
pyflakes==1.6.0
Pygments==2.10.0
PyGObject==3.36.0
pygsheets @ https://github.com/nithinmurali/pygsheets/archive/master.zip
PyJWT==1.7.1
pymacaroons==0.13.0
PyNaCl==1.3.0
pyOpenSSL==21.0.0
pyparsing==2.4.7
PyPDF2==1.26.0
pyRFC3339==1.1
pytest==3.5.1
pytest-django==3.2.1
pytest-sugar==0.9.1
python-apt==2.0.0+ubuntu0.20.4.6
python-bidi==0.4.2
python-dateutil==2.8.2
python-debian===0.1.36ubuntu1
python-google-places==1.4.1
python-jose==3.0.0
python-keycloak==0.17.5
pytz==2018.4
pyxdg==0.26
PyYAML==5.3.1
raven==6.10.0
rcssmin @ git+https://github.com/ndparker/rcssmin.git@f9ed9a82f23f235e884e39645ccd5de7deb88d4c
redis==3.5.3
regex==2021.9.24
reportlab==3.5.34
requests==2.26.0
requests-oauthlib==1.3.0
requests-unixsocket==0.2.0
rjsmin==1.1.0
rsa==4.7.2
s3transfer==0.5.0
SecretStorage==2.3.1
selenium==4.1.0
simplejson==3.17.5
six==1.16.0
sniffio==1.2.0
snowballstemmer==2.1.0
sortedcontainers==2.4.0
Sphinx==1.7.4
sphinxcontrib-serializinghtml==1.1.5
sphinxcontrib-websupport==1.2.4
sqlparse==0.4.2
systemd-python==234
termcolor==1.1.0
testresources==2.0.0
text-unidecode==1.3
traceback2==1.4.0
traitlets==5.1.0
trio==0.19.0
trio-websocket==0.9.2
ua-parser==0.10.0
ubuntu-advantage-tools==27.4
ubuntu-drivers-common==0.0.0
ufw==0.36
unattended-upgrades==0.1
unicodecsv==0.14.1
Unidecode==0.4.21
unittest2==1.1.0
uritemplate==4.1.1
urllib3==1.26.7
usb-creator==0.3.7
user-agents==2.2.0
vine==1.3.0
wadllib==1.3.3
watchtower==1.0.6
wcwidth==0.2.5
webencodings==0.5.1
Werkzeug==0.14.1
wrapt==1.13.3
wsproto==1.0.0
xhtml2pdf==0.2.5
xkit==0.0.0
